<svg version="1.1" class="iconic iconic-mail" xmlns="http://www.w3.org/2000/svg" xmlns:xlink="http://www.w3.org/1999/xlink" x="0px" y="0px" width="9px" height="7px" viewBox="0 0 9 7" enable-background="new 0 0 9 7" xml:space="preserve">
<polygon class="iconic-mail-flap iconic-elem-primary" points="4.519,3.364 8.5,1.48 8.5,0.5 0.5,0.5 0.5,1.477 "/>
<polygon class="iconic-mail-envelope iconic-elem-secondary" points="4.522,4.47 0.5,2.58 0.5,6.5 8.5,6.5 8.5,2.586 "/>
</svg>